%YAML 1.1
%TAG !u! tag:unity3d.com,2011:
--- !u!114 &11400000
MonoBehaviour:
  m_ObjectHideFlags: 0
  m_PrefabParentObject: {fileID: 0}
  m_PrefabInternal: {fileID: 0}
  m_GameObject: {fileID: 0}
  m_Enabled: 1
  m_EditorHideFlags: 0
  m_Script: {fileID: 11500000, guid: 9f3758f8f58fdef43803eb9be1df0608, type: 3}
  m_Name: PhotonServerSettings
  m_EditorClassIdentifier: 
  AppID: 31c1f934-7041-400d-9434-3891a58448b8
  VoiceAppID: 
  ChatAppID: 
  HostType: 1
  PreferredRegion: 0
  EnabledRegions: -1
  Protocol: 0
  ServerAddress: 
  ServerPort: 5055
  VoiceServerPort: 5055
  JoinLobby: 0
  EnableLobbyStatistics: 0
  PunLogging: 2
  NetworkLogging: 1
  RunInBackground: 1
  RpcList:
  - Chat
  - ColorRpc
  - DestroyRpc
  - DoJump
  - Flash
  - InstantiateRpc
  - Marco
  - PickupItemInit
  - Polo
  - PunPickup
  - PunPickupSimple
  - PunRespawn
  - RequestForPickupItems
  - RequestForPickupTimes
  - TaggedPlayer
  - MultiplayerPanel_ChatReceived
  - StartMatch
  - FireRPC
  - ReceiveDamage
  DisableAutoOpenWizard: 1
